{
  "configVersion": 2,
  "packages": [
    {
      "name": "async",
      "rootUri": "file:///home/rx/x/x/Program/flutter/.pub-cache/hosted/pub.dartlang.org/async-2.5.0-nullsafety.1",
      "packageUri": "lib/",
      "languageVersion": "2.10"
    },
    {
      "name": "boolean_selector",
      "rootUri": "file:///home/rx/x/x/Program/flutter/.pub-cache/hosted/pub.dartlang.org/boolean_selector-2.1.0-nullsafety.1",
      "packageUri": "lib/",
      "languageVersion": "2.10"
    },
    {
      "name": "characters",
      "rootUri": "file:///home/rx/x/x/Program/flutter/.pub-cache/hosted/pub.dartlang.org/characters-1.1.0-nullsafety.3",
      "packageUri": "lib/",
      "languageVersion": "2.10"
    },
    {
      "name": "charcode",
      "rootUri": "file:///home/rx/x/x/Program/flutter/.pub-cache/hosted/pub.dartlang.org/charcode-1.2.0-nullsafety.1",
      "packageUri": "lib/",
      "languageVersion": "2.10"
    },
    {
      "name": "clock",
      "rootUri": "file:///home/rx/x/x/Program/flutter/.pub-cache/hosted/pub.dartlang.org/clock-1.1.0-nullsafety.1",
      "packageUri": "lib/",
      "languageVersion": "2.10"
    },
    {
      "name": "collection",
      "rootUri": "file:///home/rx/x/x/Program/flutter/.pub-cache/hosted/pub.dartlang.org/collection-1.15.0-nullsafety.3",
      "packageUri": "lib/",
      "languageVersion": "2.10"
    },
    {
      "name": "cupertino_icons",
      "rootUri": "file:///home/rx/x/x/Program/flutter/.pub-cache/hosted/pub.dartlang.org/cupertino_icons-1.0.0",
      "packageUri": "lib/",
      "languageVersion": "2.0"
    },
    {
      "name": "fake_async",
      "rootUri": "file:///home/rx/x/x/Program/flutter/.pub-cache/hosted/pub.dartlang.org/fake_async-1.2.0-nullsafety.1",
      "packageUri": "lib/",
      "languageVersion": "2.10"
    },
    {
      "name": "ffi",
      "rootUri": "file:///home/rx/x/x/Program/flutter/.pub-cache/hosted/pub.dartlang.org/ffi-0.1.3",
      "packageUri": "lib/",
      "languageVersion": "2.6"
    },
    {
      "name": "file",
      "rootUri": "file:///home/rx/x/x/Program/flutter/.pub-cache/hosted/pub.dartlang.org/file-5.2.1",
      "packageUri": "lib/",
      "languageVersion": "2.2"
    },
    {
      "name": "flutter",
      "rootUri": "file:///home/rx/x/x/Program/flutter/packages/flutter",
      "packageUri": "lib/",
      "languageVersion": "2.10"
    },
    {
      "name": "flutter_test",
      "rootUri": "file:///home/rx/x/x/Program/flutter/packages/flutter_test",
      "packageUri": "lib/",
      "languageVersion": "2.2"
    },
    {
      "name": "intl",
      "rootUri": "file:///home/rx/x/x/Program/flutter/.pub-cache/hosted/pub.dartlang.org/intl-0.16.1",
      "packageUri": "lib/",
      "languageVersion": "2.5"
    },
    {
      "name": "matcher",
      "rootUri": "file:///home/rx/x/x/Program/flutter/.pub-cache/hosted/pub.dartlang.org/matcher-0.12.10-nullsafety.1",
      "packageUri": "lib/",
      "languageVersion": "2.10"
    },
    {
      "name": "meta",
      "rootUri": "file:///home/rx/x/x/Program/flutter/.pub-cache/hosted/pub.dartlang.org/meta-1.3.0-nullsafety.3",
      "packageUri": "lib/",
      "languageVersion": "2.10"
    },
    {
      "name": "path",
      "rootUri": "file:///home/rx/x/x/Program/flutter/.pub-cache/hosted/pub.dartlang.org/path-1.8.0-nullsafety.1",
      "packageUri": "lib/",
      "languageVersion": "2.10"
    },
    {
      "name": "path_provider",
      "rootUri": "file:///home/rx/x/x/Program/flutter/.pub-cache/hosted/pub.dartlang.org/path_provider-1.6.27",
      "packageUri": "lib/",
      "languageVersion": "2.1"
    },
    {
      "name": "path_provider_linux",
      "rootUri": "file:///home/rx/x/x/Program/flutter/.pub-cache/hosted/pub.dartlang.org/path_provider_linux-0.0.1+2",
      "packageUri": "lib/",
      "languageVersion": "2.1"
    },
    {
      "name": "path_provider_macos",
      "rootUri": "file:///home/rx/x/x/Program/flutter/.pub-cache/hosted/pub.dartlang.org/path_provider_macos-0.0.4+8",
      "packageUri": "lib/",
      "languageVersion": "2.1"
    },
    {
      "name": "path_provider_platform_interface",
      "rootUri": "file:///home/rx/x/x/Program/flutter/.pub-cache/hosted/pub.dartlang.org/path_provider_platform_interface-1.0.4",
      "packageUri": "lib/",
      "languageVersion": "2.1"
    },
    {
      "name": "path_provider_windows",
      "rootUri": "file:///home/rx/x/x/Program/flutter/.pub-cache/hosted/pub.dartlang.org/path_provider_windows-0.0.4+3",
      "packageUri": "lib/",
      "languageVersion": "2.1"
    },
    {
      "name": "platform",
      "rootUri": "file:///home/rx/x/x/Program/flutter/.pub-cache/hosted/pub.dartlang.org/platform-2.2.1",
      "packageUri": "lib/",
      "languageVersion": "1.24"
    },
    {
      "name": "plugin_platform_interface",
      "rootUri": "file:///home/rx/x/x/Program/flutter/.pub-cache/hosted/pub.dartlang.org/plugin_platform_interface-1.0.3",
      "packageUri": "lib/",
      "languageVersion": "2.1"
    },
    {
      "name": "process",
      "rootUri": "file:///home/rx/x/x/Program/flutter/.pub-cache/hosted/pub.dartlang.org/process-3.0.13",
      "packageUri": "lib/",
      "languageVersion": "2.0"
    },
    {
      "name": "sky_engine",
      "rootUri": "file:///home/rx/x/x/Program/flutter/bin/cache/pkg/sky_engine",
      "packageUri": "lib/",
      "languageVersion": "1.11"
    },
    {
      "name": "source_span",
      "rootUri": "file:///home/rx/x/x/Program/flutter/.pub-cache/hosted/pub.dartlang.org/source_span-1.8.0-nullsafety.2",
      "packageUri": "lib/",
      "languageVersion": "2.10"
    },
    {
      "name": "stack_trace",
      "rootUri": "file:///home/rx/x/x/Program/flutter/.pub-cache/hosted/pub.dartlang.org/stack_trace-1.10.0-nullsafety.1",
      "packageUri": "lib/",
      "languageVersion": "2.10"
    },
    {
      "name": "stream_channel",
      "rootUri": "file:///home/rx/x/x/Program/flutter/.pub-cache/hosted/pub.dartlang.org/stream_channel-2.1.0-nullsafety.1",
      "packageUri": "lib/",
      "languageVersion": "2.10"
    },
    {
      "name": "string_scanner",
      "rootUri": "file:///home/rx/x/x/Program/flutter/.pub-cache/hosted/pub.dartlang.org/string_scanner-1.1.0-nullsafety.1",
      "packageUri": "lib/",
      "languageVersion": "2.10"
    },
    {
      "name": "term_glyph",
      "rootUri": "file:///home/rx/x/x/Program/flutter/.pub-cache/hosted/pub.dartlang.org/term_glyph-1.2.0-nullsafety.1",
      "packageUri": "lib/",
      "languageVersion": "2.10"
    },
    {
      "name": "test_api",
      "rootUri": "file:///home/rx/x/x/Program/flutter/.pub-cache/hosted/pub.dartlang.org/test_api-0.2.19-nullsafety.2",
      "packageUri": "lib/",
      "languageVersion": "2.10"
    },
    {
      "name": "typed_data",
      "rootUri": "file:///home/rx/x/x/Program/flutter/.pub-cache/hosted/pub.dartlang.org/typed_data-1.3.0-nullsafety.3",
      "packageUri": "lib/",
      "languageVersion": "2.10"
    },
    {
      "name": "vector_math",
      "rootUri": "file:///home/rx/x/x/Program/flutter/.pub-cache/hosted/pub.dartlang.org/vector_math-2.1.0-nullsafety.3",
      "packageUri": "lib/",
      "languageVersion": "2.10"
    },
    {
      "name": "win32",
      "rootUri": "file:///home/rx/x/x/Program/flutter/.pub-cache/hosted/pub.dartlang.org/win32-1.7.4+1",
      "packageUri": "lib/",
      "languageVersion": "2.7"
    },
    {
      "name": "xdg_directories",
      "rootUri": "file:///home/rx/x/x/Program/flutter/.pub-cache/hosted/pub.dartlang.org/xdg_directories-0.1.2",
      "packageUri": "lib/",
      "languageVersion": "2.3"
    },
    {
      "name": "z_est",
      "rootUri": "../",
      "packageUri": "lib/",
      "languageVersion": "2.7"
    }
  ],
  "generated": "2021-02-03T18:20:08.305051Z",
  "generator": "pub",
  "generatorVersion": "2.10.5"
}
